{
  "images" : [
    {
      "filename" : "baseline_sports_martial_arts_black_48pt_1x.png",
      "idiom" : "universal",
      "scale" : "1x"
    },
    {
      "filename" : "baseline_sports_martial_arts_black_48pt_2x.png",
      "idiom" : "universal",
      "scale" : "2x"
    },
    {
      "filename" : "baseline_sports_martial_arts_black_48pt_3x.png",
      "idiom" : "universal",
      "scale" : "3x"
    }
  ],
  "info" : {
    "author" : "xcode",
    "version" : 1
  }
}
